{
	/* 
	   
	   ***********************
	   Portals
	   ***********************
	*/
	"enableMiningPortal": true,
	"enableHuntingPortal": true,
	"enableCavingPortal": true,
	"enableNetheringPortal": true,
	"enableClimbingPortal": true,
	/* 
	   
	   ***********************
	   Portable Teleporters
	   ***********************
	*/
	"enableMiningTeleporter": false,
	"enableHuntingTeleporter": false,
	"enableCavingTeleporter": false,
	"enableNetheringTeleporter": false,
	"enableClimbingTeleporter": false,
	"enableReturningEnchantment": false,
	/* 
	   
	   ***********************
	   Teleporters
	    * disable check and place player
	    possibly in middle of an ocean on
	    a stone block.
	    * be sure to be carrying a boat!
	   ***********************
	*/
	"enableOceanCheck": true,
	/* 
	   
	   ***********************
	   Extra Overworld Deepslate Ores
	    (Also affects the Mining, Climbing, & Caving Dims)
	   ***********************
	*/
	"enableExtraDiamond": false,
	"extraDiamondDeepslateVeinSize": 3,
	"extraDiamondDeepslateVeinsPerChunk": 8,
	"extraDiamondDeepslateMaxHeight": -50,
	/* 
	   
	   ***********************
	   Extra Nether Ores
	    (Also affects the Nethering Dim)
	   ***********************
	*/
	"enableExtraAncientDebris": true,
	"extraAncientDebrisVeinSize": 2,
	"extraAncientDebrisVeinsPerChunk": 6,
	"extraAncientDebrisMaxHeight": 40,
	/* 
	   
	   ***********************
	   Hunting Dim Mobs
	    - settings for mob attributes
	   ***********************
	*/
	"zombieMaxHealth": 40.0,
	"zombieAttackDamageBonus": 6.0,
	"zombieArmorBonus": 8.0,
	"zombieMovementBonus": 0.05,
	"piglinMaxHealth": 40.0,
	"piglinAttackDamageBonus": 20.0,
	"piglinArmorBonus": 20.0,
	"piglinMovementBonus": 0.05,
	"piglinBruteMaxHealth": 60.0,
	"piglinBruteAttackDamageBonus": 20.0,
	"piglinBruteArmorBonus": 20.0,
	"piglinBruteMovementBonus": 0.075,
	"witherSkeletonMaxHealth": 80.0,
	"witherSkeletonDamageBonus": 20.0,
	"witherSkeletonArmorBonus": 20.0,
	"witherSkeletonMovementBonus": 0.085,
	/* 
	   
	   ***********************
	   Hunting Dim Mobs
	    - settings for armor/weapon
	   ***********************
	*/
	"enableZombieGear": true,
	"enablePiglinGear": true,
	"enablePiglinBruteGear": true,
	"enableWitherSkeletonGear": true,
	"enableVexGear": true,
	"gearDropChannce": 0.1
}