{
  "inv_toggle": true,
  "inv_mini": false,
  "inv_vert": false,
  "inv_alpha": 40,
  "inv_hide_b_g": false,
  "inv_aminated": false,
  "pot_toggle": true,
  "pot_alpha": 42,
  "pot_gap": 0,
  "pot_mini": false,
  "bar_duration": 300,
  "pot_hor": true,
  "arm_toggle": true,
  "arm_above": 100,
  "arm_view": "damage-left",
  "move_all": true,
  "show_empty": true,
  "show_armor": true,
  "show_main": true,
  "show_off": true,
  "show_arrows": false,
  "show_inv": false,
  "arm_bars": true,
  "arm_scale": 75,
  "show_count": false,
  "inv_x": 0,
  "inv_y": 119,
  "inv_val": "BOTTOM",
  "inv_hal": "MIDDLE",
  "pot_x": 0,
  "pot_y": 17,
  "pot_val": "TOP",
  "pot_hal": "MIDDLE",
  "arm_x": 165,
  "arm_y": 0,
  "arm_val": "TOP",
  "arm_hal": "LEFT",
  "helm_x": 103,
  "helm_y": 54,
  "chest_x": 103,
  "chest_y": 37,
  "leg_x": -103,
  "leg_y": 54,
  "boots_x": -103,
  "boots_y": 37,
  "main_x": 103,
  "main_y": 71,
  "off_x": -103,
  "off_y": 71,
  "arr_x": 103,
  "arr_y": 20,
  "inv_icon_x": -103,
  "inv_icon_y": 20,
  "helm_hal": "MIDDLE",
  "chest_hal": "MIDDLE",
  "leg_hal": "MIDDLE",
  "boots_hal": "MIDDLE",
  "main_hal": "MIDDLE",
  "off_hal": "MIDDLE",
  "arr_hal": "MIDDLE",
  "inv_icon_hal": "MIDDLE",
  "helm_val": "BOTTOM",
  "chest_val": "BOTTOM",
  "leg_val": "BOTTOM",
  "boots_val": "BOTTOM",
  "main_val": "BOTTOM",
  "off_val": "BOTTOM",
  "arr_val": "BOTTOM",
  "inv_icon_val": "BOTTOM"
}